<svg width="24" height="24" viewBox="0 0 24 24" fill="none" xmlns="http://www.w3.org/2000/svg">
<rect x="2" y="4" width="20" height="16" stroke="black" stroke-width="1.5"/>
<line x1="2.75" y1="8.25" x2="21.25" y2="8.25" stroke="black" stroke-width="1.5" stroke-linecap="round" stroke-linejoin="round"/>
<line x1="13" y1="15.25" x2="19" y2="15.25" stroke="black" stroke-width="1.5"/>
<circle cx="6.5" cy="15.5" r="1.5" fill="black"/>
<circle cx="8.5" cy="15.5" r="1.5" fill="black"/>
</svg>
