<svg width="119" height="119" viewBox="0 0 119 119" fill="none" xmlns="http://www.w3.org/2000/svg">
<mask id="mask0" mask-type="alpha" maskUnits="userSpaceOnUse" x="0" y="0" width="119" height="119">
<rect width="119" height="119" fill="#C4C4C4"/>
</mask>
<g mask="url(#mask0)">
<path fill-rule="evenodd" clip-rule="evenodd" d="M119 26.5C67.9137 26.5 26.5 67.9137 26.5 119C26.5 170.086 67.9137 211.5 119 211.5C170.086 211.5 211.5 170.086 211.5 119C211.5 67.9137 170.086 26.5 119 26.5ZM25.5 119C25.5 67.3614 67.3614 25.5 119 25.5C170.639 25.5 212.5 67.3614 212.5 119C212.5 170.639 170.639 212.5 119 212.5C67.3614 212.5 25.5 170.639 25.5 119ZM119 34.5C72.3319 34.5 34.5 72.3319 34.5 119C34.5 165.668 72.3319 203.5 119 203.5C165.668 203.5 203.5 165.668 203.5 119C203.5 72.3319 165.668 34.5 119 34.5ZM33.5 119C33.5 71.7797 71.7797 33.5 119 33.5C166.22 33.5 204.5 71.7797 204.5 119C204.5 166.22 166.22 204.5 119 204.5C71.7797 204.5 33.5 166.22 33.5 119ZM42.5 119C42.5 76.7502 76.7502 42.5 119 42.5C161.25 42.5 195.5 76.7502 195.5 119C195.5 161.25 161.25 195.5 119 195.5C76.7502 195.5 42.5 161.25 42.5 119ZM119 41.5C76.1979 41.5 41.5 76.1979 41.5 119C41.5 161.802 76.1979 196.5 119 196.5C161.802 196.5 196.5 161.802 196.5 119C196.5 76.1979 161.802 41.5 119 41.5ZM119 50.5C81.1685 50.5 50.5 81.1685 50.5 119C50.5 156.832 81.1685 187.5 119 187.5C156.832 187.5 187.5 156.832 187.5 119C187.5 81.1685 156.832 50.5 119 50.5ZM49.5 119C49.5 80.6162 80.6162 49.5 119 49.5C157.384 49.5 188.5 80.6162 188.5 119C188.5 157.384 157.384 188.5 119 188.5C80.6162 188.5 49.5 157.384 49.5 119ZM58.5 119C58.5 85.5868 85.5868 58.5 119 58.5C152.413 58.5 179.5 85.5868 179.5 119C179.5 152.413 152.413 179.5 119 179.5C85.5868 179.5 58.5 152.413 58.5 119ZM119 57.5C85.0345 57.5 57.5 85.0345 57.5 119C57.5 152.966 85.0345 180.5 119 180.5C152.966 180.5 180.5 152.966 180.5 119C180.5 85.0345 152.966 57.5 119 57.5Z" fill="black"/>
</g>
</svg>
