<svg xmlns="http://www.w3.org/2000/svg" xmlns:xlink="http://www.w3.org/1999/xlink" width="24" height="24" viewBox="0 0 24 24">
  <defs>
    <clipPath id="clip-path">
      <rect id="Rectangle" width="24" height="24" transform="translate(81 295.5)" fill="none"/>
    </clipPath>
  </defs>
  <g id="Icon" transform="translate(-81 -295.5)" clip-path="url(#clip-path)">
    <path id="Path" d="M102.891,298.359H83.109A2.113,2.113,0,0,0,81,300.469v14.062a2.113,2.113,0,0,0,2.109,2.11h19.782a2.113,2.113,0,0,0,2.109-2.11V300.469A2.113,2.113,0,0,0,102.891,298.359Zm-.292,1.407-9.554,9.554-9.638-9.554ZM82.406,314.24V300.753l6.773,6.715Zm1,.994,6.776-6.776,2.375,2.354a.7.7,0,0,0,.992,0l2.315-2.316,6.74,6.74Zm20.193-.994-6.74-6.74,6.74-6.74Z" fill="#151515"/>
  </g>
</svg>
